GNU LilyPond 2.18.2
Changing working directory to: `TEMP-an-introduction-to-chromatic-solfege-00109-enharmonic-single-accidentals-sf'
Processing `an-introduction-to-chromatic-solfege-00109-enharmonic-single-accidentals-sf.ly'
Parsing...
Interpreting music...
Interpreting music...
Preprocessing graphical objects...
MIDI output to `an-introduction-to-chromatic-solfege-00109-enharmonic-single-accidentals-sf.midi'...
Calculating line breaks... 
Drawing systems... 
Layout output to `an-introduction-to-chromatic-solfege-00109-enharmonic-single-accidentals-sf.eps'...
Converting to `./an-introduction-to-chromatic-solfege-00109-enharmonic-single-accidentals-sf.pdf'...
Layout output to `an-introduction-to-chromatic-solfege-00109-enharmonic-single-accidentals-sf-1.eps'...
Layout output to `an-introduction-to-chromatic-solfege-00109-enharmonic-single-accidentals-sf-2.eps'...
Converting to `./an-introduction-to-chromatic-solfege-00109-enharmonic-single-accidentals-sf-1.pdf'...
Converting to `./an-introduction-to-chromatic-solfege-00109-enharmonic-single-accidentals-sf-2.pdf'...
Writing an-introduction-to-chromatic-solfege-00109-enharmonic-single-accidentals-sf-systems.texi...
Writing an-introduction-to-chromatic-solfege-00109-enharmonic-single-accidentals-sf-systems.tex...
Writing an-introduction-to-chromatic-solfege-00109-enharmonic-single-accidentals-sf-systems.count...
Success: compilation successfully completed
