GNU LilyPond 2.18.2
Changing working directory to: `TEMP-an-introduction-to-chromatic-solfege-00976-diminished-basic'
Processing `an-introduction-to-chromatic-solfege-00976-diminished-basic.ly'
Parsing...
Interpreting music...
Interpreting music...
Preprocessing graphical objects...
MIDI output to `an-introduction-to-chromatic-solfege-00976-diminished-basic.midi'...
Calculating line breaks... 
Drawing systems... 
Layout output to `an-introduction-to-chromatic-solfege-00976-diminished-basic.eps'...
Converting to `./an-introduction-to-chromatic-solfege-00976-diminished-basic.pdf'...
Layout output to `an-introduction-to-chromatic-solfege-00976-diminished-basic-1.eps'...
Converting to `./an-introduction-to-chromatic-solfege-00976-diminished-basic-1.pdf'...
Writing an-introduction-to-chromatic-solfege-00976-diminished-basic-systems.texi...
Writing an-introduction-to-chromatic-solfege-00976-diminished-basic-systems.tex...
Writing an-introduction-to-chromatic-solfege-00976-diminished-basic-systems.count...
Success: compilation successfully completed
