GNU LilyPond 2.18.2
Changing working directory to: `TEMP-an-introduction-to-chromatic-solfege-00184-fe'
Processing `an-introduction-to-chromatic-solfege-00184-fe.ly'
Parsing...
Interpreting music...
Interpreting music...
Preprocessing graphical objects...
MIDI output to `an-introduction-to-chromatic-solfege-00184-fe.midi'...
Calculating line breaks... 
Drawing systems... 
Layout output to `an-introduction-to-chromatic-solfege-00184-fe.eps'...
Converting to `./an-introduction-to-chromatic-solfege-00184-fe.pdf'...
Layout output to `an-introduction-to-chromatic-solfege-00184-fe-1.eps'...
Converting to `./an-introduction-to-chromatic-solfege-00184-fe-1.pdf'...
Writing an-introduction-to-chromatic-solfege-00184-fe-systems.texi...
Writing an-introduction-to-chromatic-solfege-00184-fe-systems.tex...
Writing an-introduction-to-chromatic-solfege-00184-fe-systems.count...
Success: compilation successfully completed
