GNU LilyPond 2.18.2
Changing working directory to: `TEMP-an-introduction-to-chromatic-solfege-00159-fa'
Processing `an-introduction-to-chromatic-solfege-00159-fa.ly'
Parsing...
Interpreting music...
Interpreting music...
Preprocessing graphical objects...
MIDI output to `an-introduction-to-chromatic-solfege-00159-fa.midi'...
Calculating line breaks... 
Drawing systems... 
Layout output to `an-introduction-to-chromatic-solfege-00159-fa.eps'...
Converting to `./an-introduction-to-chromatic-solfege-00159-fa.pdf'...
Layout output to `an-introduction-to-chromatic-solfege-00159-fa-1.eps'...
Converting to `./an-introduction-to-chromatic-solfege-00159-fa-1.pdf'...
Writing an-introduction-to-chromatic-solfege-00159-fa-systems.texi...
Writing an-introduction-to-chromatic-solfege-00159-fa-systems.tex...
Writing an-introduction-to-chromatic-solfege-00159-fa-systems.count...
Success: compilation successfully completed
