GNU LilyPond 2.18.2
Changing working directory to: `TEMP-an-introduction-to-chromatic-solfege-00823-advanced-intervals'
Processing `an-introduction-to-chromatic-solfege-00823-advanced-intervals.ly'
Parsing...
Interpreting music...
Interpreting music...
Preprocessing graphical objects...
MIDI output to `an-introduction-to-chromatic-solfege-00823-advanced-intervals.midi'...
Calculating line breaks... 
Drawing systems... 
Layout output to `an-introduction-to-chromatic-solfege-00823-advanced-intervals.eps'...
Converting to `./an-introduction-to-chromatic-solfege-00823-advanced-intervals.pdf'...
Layout output to `an-introduction-to-chromatic-solfege-00823-advanced-intervals-1.eps'...
Converting to `./an-introduction-to-chromatic-solfege-00823-advanced-intervals-1.pdf'...
Writing an-introduction-to-chromatic-solfege-00823-advanced-intervals-systems.texi...
Writing an-introduction-to-chromatic-solfege-00823-advanced-intervals-systems.tex...
Writing an-introduction-to-chromatic-solfege-00823-advanced-intervals-systems.count...
Success: compilation successfully completed
