GNU LilyPond 2.18.2
Changing working directory to: `TEMP-an-introduction-to-chromatic-solfege-01018-melodic-06'
Processing `an-introduction-to-chromatic-solfege-01018-melodic-06.ly'
Parsing...
Interpreting music...
Interpreting music...
Preprocessing graphical objects...
MIDI output to `an-introduction-to-chromatic-solfege-01018-melodic-06.midi'...
Calculating line breaks... 
Drawing systems... 
Layout output to `an-introduction-to-chromatic-solfege-01018-melodic-06.eps'...
Converting to `./an-introduction-to-chromatic-solfege-01018-melodic-06.pdf'...
Layout output to `an-introduction-to-chromatic-solfege-01018-melodic-06-1.eps'...
Converting to `./an-introduction-to-chromatic-solfege-01018-melodic-06-1.pdf'...
Writing an-introduction-to-chromatic-solfege-01018-melodic-06-systems.texi...
Writing an-introduction-to-chromatic-solfege-01018-melodic-06-systems.tex...
Writing an-introduction-to-chromatic-solfege-01018-melodic-06-systems.count...
Success: compilation successfully completed
