\version "2.18.2"
\include "aaron.ly"
\include "chromatic-template.ly"
\include "lilypond-book-preamble.ly"
\language "aaron"

	\makescore 
  \relative do' {
	\absolute { do' fa' te' me'' le' ra'' se'' de' fe' taw' maw'' law' raw'' saw'' daw' faw' tae' mae'' lae' rae'' sae'' dae' fae' }
  }
  #'(( festival-tempo . 100 )( festival-voice . voice_us2_mbrola )( do-compile . #t )( do-play . #f ))

\paper  {
	#(set! paper-alist (cons '("a4insides" . (cons (* 8 in) (* 3 in))) paper-alist))
	#(set-paper-size "a4insides")
}

