\version "2.18.2"
\include "aaron.ly"
\include "chromatic-template.ly"
\include "lilypond-book-preamble.ly"
\language "aaron"

	\makescore 
  \relative do' {
	\absolute { tai' dao'' rao'' mai'' fao'' sao'' lao'' tai''  \bar "|"  tai'' lao'' sao'' fao'' mai'' rao'' dao'' tai' }
  }
  #'(( festival-tempo . 150 )( festival-voice . voice_us2_mbrola )( do-compile . #t )( do-play . #f ))

\paper  {
	#(set! paper-alist (cons '("a4insides" . (cons (* 8 in) (* 3 in))) paper-alist))
	#(set-paper-size "a4insides")
}

