GNU LilyPond 2.18.2
Changing working directory to: `TEMP-an-introduction-to-chromatic-solfege-00152-sol'
Processing `an-introduction-to-chromatic-solfege-00152-sol.ly'
Parsing...
Interpreting music...
Interpreting music...
Preprocessing graphical objects...
MIDI output to `an-introduction-to-chromatic-solfege-00152-sol.midi'...
Calculating line breaks... 
Drawing systems... 
Layout output to `an-introduction-to-chromatic-solfege-00152-sol.eps'...
Converting to `./an-introduction-to-chromatic-solfege-00152-sol.pdf'...
Layout output to `an-introduction-to-chromatic-solfege-00152-sol-1.eps'...
Converting to `./an-introduction-to-chromatic-solfege-00152-sol-1.pdf'...
Writing an-introduction-to-chromatic-solfege-00152-sol-systems.texi...
Writing an-introduction-to-chromatic-solfege-00152-sol-systems.tex...
Writing an-introduction-to-chromatic-solfege-00152-sol-systems.count...
Success: compilation successfully completed
