GNU LilyPond 2.18.2
Changing working directory to: `TEMP-an-introduction-to-chromatic-solfege-00171-ri'
Processing `an-introduction-to-chromatic-solfege-00171-ri.ly'
Parsing...
Interpreting music...
Interpreting music...
Preprocessing graphical objects...
MIDI output to `an-introduction-to-chromatic-solfege-00171-ri.midi'...
Calculating line breaks... 
Drawing systems... 
Layout output to `an-introduction-to-chromatic-solfege-00171-ri.eps'...
Converting to `./an-introduction-to-chromatic-solfege-00171-ri.pdf'...
Layout output to `an-introduction-to-chromatic-solfege-00171-ri-1.eps'...
Converting to `./an-introduction-to-chromatic-solfege-00171-ri-1.pdf'...
Writing an-introduction-to-chromatic-solfege-00171-ri-systems.texi...
Writing an-introduction-to-chromatic-solfege-00171-ri-systems.tex...
Writing an-introduction-to-chromatic-solfege-00171-ri-systems.count...
Success: compilation successfully completed
