GNU LilyPond 2.18.2
Changing working directory to: `TEMP-an-introduction-to-chromatic-solfege-00242-me-02'
Processing `an-introduction-to-chromatic-solfege-00242-me-02.ly'
Parsing...
Interpreting music...
Interpreting music...
Preprocessing graphical objects...
MIDI output to `an-introduction-to-chromatic-solfege-00242-me-02.midi'...
Calculating line breaks... 
Drawing systems... 
Layout output to `an-introduction-to-chromatic-solfege-00242-me-02.eps'...
Converting to `./an-introduction-to-chromatic-solfege-00242-me-02.pdf'...
Layout output to `an-introduction-to-chromatic-solfege-00242-me-02-1.eps'...
Converting to `./an-introduction-to-chromatic-solfege-00242-me-02-1.pdf'...
Writing an-introduction-to-chromatic-solfege-00242-me-02-systems.texi...
Writing an-introduction-to-chromatic-solfege-00242-me-02-systems.tex...
Writing an-introduction-to-chromatic-solfege-00242-me-02-systems.count...
Success: compilation successfully completed
