GNU LilyPond 2.18.2
Changing working directory to: `TEMP-an-introduction-to-chromatic-solfege-00067-chromatic-02-flat'
Processing `an-introduction-to-chromatic-solfege-00067-chromatic-02-flat.ly'
Parsing...
Interpreting music...
Interpreting music...
Preprocessing graphical objects...
MIDI output to `an-introduction-to-chromatic-solfege-00067-chromatic-02-flat.midi'...
Calculating line breaks... 
Drawing systems... 
Layout output to `an-introduction-to-chromatic-solfege-00067-chromatic-02-flat.eps'...
Converting to `./an-introduction-to-chromatic-solfege-00067-chromatic-02-flat.pdf'...
Layout output to `an-introduction-to-chromatic-solfege-00067-chromatic-02-flat-1.eps'...
Converting to `./an-introduction-to-chromatic-solfege-00067-chromatic-02-flat-1.pdf'...
Writing an-introduction-to-chromatic-solfege-00067-chromatic-02-flat-systems.texi...
Writing an-introduction-to-chromatic-solfege-00067-chromatic-02-flat-systems.tex...
Writing an-introduction-to-chromatic-solfege-00067-chromatic-02-flat-systems.count...
Success: compilation successfully completed
