\version "2.18.2"
\include "aaron.ly"
\include "chromatic-template.ly"
\include "lilypond-book-preamble.ly"
\language "aaron"

	\makescore 
  \relative do' {
	\absolute { do' de' s ra' raw' s re' ra' s me' maw' s mi' me' s fa' fe' s se' saw' s sol' se' s le' law' s la' le' s te' taw' s ti' te' s do'' }
  }
  #'(( festival-tempo . 170 )( festival-voice . voice_us2_mbrola )( do-compile . #t )( do-play . #f )( mark-irregular-accidentals . #t ))

\paper  {
	#(set! paper-alist (cons '("a4insides" . (cons (* 8 in) (* 3 in))) paper-alist))
	#(set-paper-size "a4insides")
}

