GNU LilyPond 2.18.2
Changing working directory to: `TEMP-an-introduction-to-chromatic-solfege-00196-sae'
Processing `an-introduction-to-chromatic-solfege-00196-sae.ly'
Parsing...
Interpreting music...
Interpreting music...
Preprocessing graphical objects...
MIDI output to `an-introduction-to-chromatic-solfege-00196-sae.midi'...
Calculating line breaks... 
Drawing systems... 
Layout output to `an-introduction-to-chromatic-solfege-00196-sae.eps'...
Converting to `./an-introduction-to-chromatic-solfege-00196-sae.pdf'...
Layout output to `an-introduction-to-chromatic-solfege-00196-sae-1.eps'...
Converting to `./an-introduction-to-chromatic-solfege-00196-sae-1.pdf'...
Writing an-introduction-to-chromatic-solfege-00196-sae-systems.texi...
Writing an-introduction-to-chromatic-solfege-00196-sae-systems.tex...
Writing an-introduction-to-chromatic-solfege-00196-sae-systems.count...
Success: compilation successfully completed
