GNU LilyPond 2.18.2
Changing working directory to: `TEMP-an-introduction-to-chromatic-solfege-00025-example01'
Processing `an-introduction-to-chromatic-solfege-00025-example01.ly'
Parsing...
Interpreting music...
Interpreting music...
Preprocessing graphical objects...
programming error: Object is not a markup.
continuing, cross fingers
This object should be a markup: ((markup #<procedure line-markup (layout props args)> ((#<procedure override-markup (layout props new-prop arg)> (font-family . serif) (#<procedure line-markup (layout props args)> ((#<procedure translate-markup (layout props offset arg)> (15 . 0) (#<procedure line-markup (layout props args)> ((#<procedure line-markup (layout props args)> ((#<procedure override-markup (layout props new-prop arg)> (size . 3.0) (#<procedure override-markup (layout props new-prop arg)> (fret-diagram-details (dot-color . white) (number-type . arabic) (orientation . landscape) (minimum-fret . 5) (finger-code . in-dot) (number-type . arabic) (fret-label-font-mag . 0.5) (dot-label-font-mag . 0.6) (string-label-font-mag . 0.6) (dot-radius . 0.4) (label-dir . 1) (mute-string . M) (barre-type . curved) (top-fret-thickness . 4) (capo-thickness . 0.0) (xo-font-magnification . 0.4) (xo-padding . 0.3) (festival-tempo . 150) (festival-voice . voice_us2_mbrola) (do-compile . #t) (do-play . #f) (show-scale-diagram . #t) (always-show-zero-fret . #t) (fret-range 1 . 12) (fret-positions 5 4 4 3)) (#<procedure fret-diagram-verbose-markup (layout props marking-list)> ((place-fret 3 2 (#<procedure line-markup (layout props args)> ((#<procedure line-markup (layout props args)> ((#<procedure override-markup (layout props new-prop arg)> (font-family . serif) (#<procedure italic-markup (layout props arg)> sai)))))) #f) (place-fret 4 4 (#<procedure line-markup (layout props args)> ((#<procedure line-markup (layout props args)> ((#<procedure override-markup (layout props new-prop arg)> (font-family . serif) (#<procedure italic-markup (layout props arg)> mai)))))) #f) (place-fret 4 0 (#<procedure line-markup (layout props args)> ((#<procedure line-markup (layout props args)> ((#<procedure override-markup (layout props new-prop arg)> (font-family . serif) (#<procedure italic-markup (layout props arg)> dai)))))) inverted) (place-fret 5 4 (#<procedure line-markup (layout props args)> ((#<procedure line-markup (layout props args)> ((#<procedure override-markup (layout props new-prop arg)> (font-family . serif) (#<procedure italic-markup (layout props arg)> tai)))))) #f) (capo -2))))))))))))))) (visible-notes #<Pitch bisis > #<Pitch cisis' > #<Pitch eisis' > #<Pitch gisis' >) (fingering-notes #<Pitch bisis > #<Pitch cisis' > #<Pitch eisis' > #<Pitch gisis' >) (visible-music . #<Prob: Music C++: Music((elements #<Prob: Music C++: Music((duration . #<Duration 4 >) (pitch . #<Pitch bisis >))((display-methods #<procedure #f (note parser)>) (name . NoteEvent) (iterator-ctor . #<primitive-procedure ly:rhythmic-music-iterator::constructor>) (types general-music event note-event rhythmic-event melodic-event)) >
 #<Prob: Music C++: Music((duration . #<Duration 4 >) (pitch . #<Pitch cisis' >))((display-methods #<procedure #f (note parser)>) (name . NoteEvent) (iterator-ctor . #<primitive-procedure ly:rhythmic-music-iterator::constructor>) (types general-music event note-event rhythmic-event melodic-event)) >
 #<Prob: Music C++: Music((duration . #<Duration 4 >) (pitch . #<Pitch eisis' >))((display-methods #<procedure #f (note parser)>) (name . NoteEvent) (iterator-ctor . #<primitive-procedure ly:rhythmic-music-iterator::constructor>) (types general-music event note-event rhythmic-event melodic-event)) >
 #<Prob: Music C++: Music((duration . #<Duration 4 >) (pitch . #<Pitch gisis' >))((display-methods #<procedure #f (note parser)>) (name . NoteEvent) (iterator-ctor . #<primitive-procedure ly:rhythmic-music-iterator::constructor>) (types general-music event note-event rhythmic-event melodic-event)) >
))((display-methods #<procedure #f (expr parser)> #<procedure #f (seq parser)>) (name . SequentialMusic) (length-callback . #<primitive-procedure ly:music-sequence::cumulative-length-callback>) (start-callback . #<primitive-procedure ly:music-sequence::first-start-callback>) (elements-callback . #<procedure #f (m)>) (iterator-ctor . #<primitive-procedure ly:sequential-iterator::constructor>) (types general-music sequential-music)) >
) (definition (place-frMIDI output to `an-introduction-to-chromatic-solfege-00025-example01.midi'...
Calculating line breaks... 
Drawing systems... 
Layout output to `an-introduction-to-chromatic-solfege-00025-example01.eps'...
Converting to `./an-introduction-to-chromatic-solfege-00025-example01.pdf'...
Layout output to `an-introduction-to-chromatic-solfege-00025-example01-1.eps'...
Converting to `./an-introduction-to-chromatic-solfege-00025-example01-1.pdf'...
Writing an-introduction-to-chromatic-solfege-00025-example01-systems.texi...
Writing an-introduction-to-chromatic-solfege-00025-example01-systems.tex...
Writing an-introduction-to-chromatic-solfege-00025-example01-systems.count...et 3 2 (#<procedure line-markup (layout props args)> ((#<procedure line-markup (layout props args)> ((#<procedure override-markup (layout props new-prop arg)> (font-family . serif) (#<procedure italic-markup (layout props arg)> sai)))))) #f) (place-fret 4 4 (#<procedure line-markup (layout props args)> ((#<procedure line-markup (layout props args)> ((#<procedure override-markup (layout props new-prop arg)> (font-family . serif) (#<procedure italic-markup (layout props arg)> mai)))))) #f) (place-fret 4 0 (#<procedure line-markup (layout props args)> ((#<procedure line-markup (layout props args)> ((#<procedure override-markup (layout props new-prop arg)> (font-family . serif) (#<procedure italic-markup (layout props arg)> dai)))))) inverted) (place-fret 5 4 (#<procedure line-markup (layout props args)> ((#<procedure line-markup (layout props args)> ((#<procedure override-markup (layout props new-prop arg)> (font-family . serif) (#<procedure italic-markup (layout props arg)> tai)))))) #f) (capo -2)))

Success: compilation successfully completed
