\version "2.18.2"
\include "aaron.ly"
\include "chromatic-template.ly"
\include "lilypond-book-preamble.ly"
\language "aaron"

	\makescore 
  \relative do' {
	\absolute { do''4 ra''4 re''4 s ti'4 do''4 ra''4 s te'4 ti'4 do''4 s la'4 te'4 ti'4 s le'4 la'4 te'4 s sol'4 le'4 la'4 s  \bar "|" \break  se'4 sol'4 le'4 s fa'4 se'4 sol'4 s mi'4 fa'4 se'4 s me'4 mi'4 fa'4 s re'4 me'4 mi'4 s ra'4 re'4 me'4 s do'2 r2 }
  }
  #'(( festival-tempo . 170 )( festival-voice . voice_us2_mbrola )( do-compile . #t )( do-play . #f ))

\paper  {
	#(set! paper-alist (cons '("a4insides" . (cons (* 8 in) (* 3 in))) paper-alist))
	#(set-paper-size "a4insides")
}

