GNU LilyPond 2.18.2
Changing working directory to: `TEMP-an-introduction-to-chromatic-solfege-00189-saw'
Processing `an-introduction-to-chromatic-solfege-00189-saw.ly'
Parsing...
Interpreting music...
Interpreting music...
Preprocessing graphical objects...
MIDI output to `an-introduction-to-chromatic-solfege-00189-saw.midi'...
Calculating line breaks... 
Drawing systems... 
Layout output to `an-introduction-to-chromatic-solfege-00189-saw.eps'...
Converting to `./an-introduction-to-chromatic-solfege-00189-saw.pdf'...
Layout output to `an-introduction-to-chromatic-solfege-00189-saw-1.eps'...
Converting to `./an-introduction-to-chromatic-solfege-00189-saw-1.pdf'...
Writing an-introduction-to-chromatic-solfege-00189-saw-systems.texi...
Writing an-introduction-to-chromatic-solfege-00189-saw-systems.tex...
Writing an-introduction-to-chromatic-solfege-00189-saw-systems.count...
Success: compilation successfully completed
