GNU LilyPond 2.18.2
Changing working directory to: `TEMP-an-introduction-to-chromatic-solfege-00193-mae'
Processing `an-introduction-to-chromatic-solfege-00193-mae.ly'
Parsing...
Interpreting music...
Interpreting music...
Preprocessing graphical objects...
MIDI output to `an-introduction-to-chromatic-solfege-00193-mae.midi'...
Calculating line breaks... 
Drawing systems... 
Layout output to `an-introduction-to-chromatic-solfege-00193-mae.eps'...
Converting to `./an-introduction-to-chromatic-solfege-00193-mae.pdf'...
Layout output to `an-introduction-to-chromatic-solfege-00193-mae-1.eps'...
Converting to `./an-introduction-to-chromatic-solfege-00193-mae-1.pdf'...
Writing an-introduction-to-chromatic-solfege-00193-mae-systems.texi...
Writing an-introduction-to-chromatic-solfege-00193-mae-systems.tex...
Writing an-introduction-to-chromatic-solfege-00193-mae-systems.count...
Success: compilation successfully completed
