GNU LilyPond 2.18.2
Changing working directory to: `TEMP-an-introduction-to-chromatic-solfege-00157-fi'
Processing `an-introduction-to-chromatic-solfege-00157-fi.ly'
Parsing...
Interpreting music...
Interpreting music...
Preprocessing graphical objects...
MIDI output to `an-introduction-to-chromatic-solfege-00157-fi.midi'...
Calculating line breaks... 
Drawing systems... 
Layout output to `an-introduction-to-chromatic-solfege-00157-fi.eps'...
Converting to `./an-introduction-to-chromatic-solfege-00157-fi.pdf'...
Layout output to `an-introduction-to-chromatic-solfege-00157-fi-1.eps'...
Converting to `./an-introduction-to-chromatic-solfege-00157-fi-1.pdf'...
Writing an-introduction-to-chromatic-solfege-00157-fi-systems.texi...
Writing an-introduction-to-chromatic-solfege-00157-fi-systems.tex...
Writing an-introduction-to-chromatic-solfege-00157-fi-systems.count...
Success: compilation successfully completed
