\version "2.18.2"
\include "aaron.ly"
\include "chromatic-template.ly"
\include "lilypond-book-preamble.ly"
\language "aaron"

	\makescore 
  \relative do' {
	\absolute { do' do' s ra' ra' s re' re' s me' me' s mi' mi' s fa' fa' s se' se' s sol' sol' s le' le' s la' la' s te' te' s ti' ti' s do'' }
  }
  #'(( festival-tempo . 170 )( festival-voice . voice_us2_mbrola )( do-compile . #t )( do-play . #f )( mark-irregular-accidentals . #t ))

\paper  {
	#(set! paper-alist (cons '("a4insides" . (cons (* 8 in) (* 3 in))) paper-alist))
	#(set-paper-size "a4insides")
}

