GNU LilyPond 2.18.2
Changing working directory to: `TEMP-an-introduction-to-chromatic-solfege-00111-enharmonic-single-accidentals-fs'
Processing `an-introduction-to-chromatic-solfege-00111-enharmonic-single-accidentals-fs.ly'
Parsing...
Interpreting music...
Interpreting music...
Preprocessing graphical objects...
MIDI output to `an-introduction-to-chromatic-solfege-00111-enharmonic-single-accidentals-fs.midi'...
Calculating line breaks... 
Drawing systems... 
Layout output to `an-introduction-to-chromatic-solfege-00111-enharmonic-single-accidentals-fs.eps'...
Converting to `./an-introduction-to-chromatic-solfege-00111-enharmonic-single-accidentals-fs.pdf'...
Layout output to `an-introduction-to-chromatic-solfege-00111-enharmonic-single-accidentals-fs-1.eps'...
Layout output to `an-introduction-to-chromatic-solfege-00111-enharmonic-single-accidentals-fs-2.eps'...
Converting to `./an-introduction-to-chromatic-solfege-00111-enharmonic-single-accidentals-fs-1.pdf'...
Converting to `./an-introduction-to-chromatic-solfege-00111-enharmonic-single-accidentals-fs-2.pdf'...
Writing an-introduction-to-chromatic-solfege-00111-enharmonic-single-accidentals-fs-systems.texi...
Writing an-introduction-to-chromatic-solfege-00111-enharmonic-single-accidentals-fs-systems.tex...
Writing an-introduction-to-chromatic-solfege-00111-enharmonic-single-accidentals-fs-systems.count...
Success: compilation successfully completed
