GNU LilyPond 2.18.2
Changing working directory to: `TEMP-an-introduction-to-chromatic-solfege-00204-la'
Processing `an-introduction-to-chromatic-solfege-00204-la.ly'
Parsing...
Interpreting music...
Interpreting music...
Preprocessing graphical objects...
MIDI output to `an-introduction-to-chromatic-solfege-00204-la.midi'...
Calculating line breaks... 
Drawing systems... 
Layout output to `an-introduction-to-chromatic-solfege-00204-la.eps'...
Converting to `./an-introduction-to-chromatic-solfege-00204-la.pdf'...
Layout output to `an-introduction-to-chromatic-solfege-00204-la-1.eps'...
Converting to `./an-introduction-to-chromatic-solfege-00204-la-1.pdf'...
Writing an-introduction-to-chromatic-solfege-00204-la-systems.texi...
Writing an-introduction-to-chromatic-solfege-00204-la-systems.tex...
Writing an-introduction-to-chromatic-solfege-00204-la-systems.count...
Success: compilation successfully completed
