GNU LilyPond 2.18.2
Changing working directory to: `TEMP-an-introduction-to-chromatic-solfege-00474-6-02-d'
Processing `an-introduction-to-chromatic-solfege-00474-6-02-d.ly'
Parsing...
Interpreting music...
Interpreting music...
Preprocessing graphical objects...
MIDI output to `an-introduction-to-chromatic-solfege-00474-6-02-d.midi'...
Calculating line breaks... 
Drawing systems... 
Layout output to `an-introduction-to-chromatic-solfege-00474-6-02-d.eps'...
Converting to `./an-introduction-to-chromatic-solfege-00474-6-02-d.pdf'...
Layout output to `an-introduction-to-chromatic-solfege-00474-6-02-d-1.eps'...
Converting to `./an-introduction-to-chromatic-solfege-00474-6-02-d-1.pdf'...
Writing an-introduction-to-chromatic-solfege-00474-6-02-d-systems.texi...
Writing an-introduction-to-chromatic-solfege-00474-6-02-d-systems.tex...
Writing an-introduction-to-chromatic-solfege-00474-6-02-d-systems.count...
Success: compilation successfully completed
