GNU LilyPond 2.18.2
Changing working directory to: `TEMP-an-introduction-to-chromatic-solfege-00181-ra'
Processing `an-introduction-to-chromatic-solfege-00181-ra.ly'
Parsing...
Interpreting music...
Interpreting music...
Preprocessing graphical objects...
MIDI output to `an-introduction-to-chromatic-solfege-00181-ra.midi'...
Calculating line breaks... 
Drawing systems... 
Layout output to `an-introduction-to-chromatic-solfege-00181-ra.eps'...
Converting to `./an-introduction-to-chromatic-solfege-00181-ra.pdf'...
Layout output to `an-introduction-to-chromatic-solfege-00181-ra-1.eps'...
Converting to `./an-introduction-to-chromatic-solfege-00181-ra-1.pdf'...
Writing an-introduction-to-chromatic-solfege-00181-ra-systems.texi...
Writing an-introduction-to-chromatic-solfege-00181-ra-systems.tex...
Writing an-introduction-to-chromatic-solfege-00181-ra-systems.count...
Success: compilation successfully completed
