GNU LilyPond 2.18.2
Changing working directory to: `TEMP-an-introduction-to-chromatic-solfege-00145-do'
Processing `an-introduction-to-chromatic-solfege-00145-do.ly'
Parsing...
Interpreting music...
Interpreting music...
Preprocessing graphical objects...
MIDI output to `an-introduction-to-chromatic-solfege-00145-do.midi'...
Calculating line breaks... 
Drawing systems... 
Layout output to `an-introduction-to-chromatic-solfege-00145-do.eps'...
Converting to `./an-introduction-to-chromatic-solfege-00145-do.pdf'...
Layout output to `an-introduction-to-chromatic-solfege-00145-do-1.eps'...
Layout output to `an-introduction-to-chromatic-solfege-00145-do-2.eps'...
Layout output to `an-introduction-to-chromatic-solfege-00145-do-3.eps'...
Layout output to `an-introduction-to-chromatic-solfege-00145-do-4.eps'...
Converting to `./an-introduction-to-chromatic-solfege-00145-do-1.pdf'...
Converting to `./an-introduction-to-chromatic-solfege-00145-do-2.pdf'...
Converting to `./an-introduction-to-chromatic-solfege-00145-do-3.pdf'...
Converting to `./an-introduction-to-chromatic-solfege-00145-do-4.pdf'...
Writing an-introduction-to-chromatic-solfege-00145-do-systems.texi...
Writing an-introduction-to-chromatic-solfege-00145-do-systems.tex...
Writing an-introduction-to-chromatic-solfege-00145-do-systems.count...
Success: compilation successfully completed
