GNU LilyPond 2.18.2
Changing working directory to: `TEMP-an-introduction-to-chromatic-solfege-00218-lai'
Processing `an-introduction-to-chromatic-solfege-00218-lai.ly'
Parsing...
Interpreting music...
Interpreting music...
Preprocessing graphical objects...
MIDI output to `an-introduction-to-chromatic-solfege-00218-lai.midi'...
Calculating line breaks... 
Drawing systems... 
Layout output to `an-introduction-to-chromatic-solfege-00218-lai.eps'...
Converting to `./an-introduction-to-chromatic-solfege-00218-lai.pdf'...
Layout output to `an-introduction-to-chromatic-solfege-00218-lai-1.eps'...
Converting to `./an-introduction-to-chromatic-solfege-00218-lai-1.pdf'...
Writing an-introduction-to-chromatic-solfege-00218-lai-systems.texi...
Writing an-introduction-to-chromatic-solfege-00218-lai-systems.tex...
Writing an-introduction-to-chromatic-solfege-00218-lai-systems.count...
Success: compilation successfully completed
