GNU LilyPond 2.18.2
Changing working directory to: `TEMP-an-introduction-to-chromatic-solfege-01014-melodic-04'
Processing `an-introduction-to-chromatic-solfege-01014-melodic-04.ly'
Parsing...
Interpreting music...
Interpreting music...
Preprocessing graphical objects...
MIDI output to `an-introduction-to-chromatic-solfege-01014-melodic-04.midi'...
Calculating line breaks... 
Drawing systems... 
Layout output to `an-introduction-to-chromatic-solfege-01014-melodic-04.eps'...
Converting to `./an-introduction-to-chromatic-solfege-01014-melodic-04.pdf'...
Layout output to `an-introduction-to-chromatic-solfege-01014-melodic-04-1.eps'...
Converting to `./an-introduction-to-chromatic-solfege-01014-melodic-04-1.pdf'...
Writing an-introduction-to-chromatic-solfege-01014-melodic-04-systems.texi...
Writing an-introduction-to-chromatic-solfege-01014-melodic-04-systems.tex...
Writing an-introduction-to-chromatic-solfege-01014-melodic-04-systems.count...
Success: compilation successfully completed
