GNU LilyPond 2.18.2
Changing working directory to: `TEMP-an-introduction-to-chromatic-solfege-00179-me'
Processing `an-introduction-to-chromatic-solfege-00179-me.ly'
Parsing...
Interpreting music...
Interpreting music...
Preprocessing graphical objects...
MIDI output to `an-introduction-to-chromatic-solfege-00179-me.midi'...
Calculating line breaks... 
Drawing systems... 
Layout output to `an-introduction-to-chromatic-solfege-00179-me.eps'...
Converting to `./an-introduction-to-chromatic-solfege-00179-me.pdf'...
Layout output to `an-introduction-to-chromatic-solfege-00179-me-1.eps'...
Converting to `./an-introduction-to-chromatic-solfege-00179-me-1.pdf'...
Writing an-introduction-to-chromatic-solfege-00179-me-systems.texi...
Writing an-introduction-to-chromatic-solfege-00179-me-systems.tex...
Writing an-introduction-to-chromatic-solfege-00179-me-systems.count...
Success: compilation successfully completed
