GNU LilyPond 2.18.2
Changing working directory to: `TEMP-an-introduction-to-chromatic-solfege-00290-6-01-u'
Processing `an-introduction-to-chromatic-solfege-00290-6-01-u.ly'
Parsing...
Interpreting music...
Interpreting music...
Preprocessing graphical objects...
MIDI output to `an-introduction-to-chromatic-solfege-00290-6-01-u.midi'...
Calculating line breaks... 
Drawing systems... 
Layout output to `an-introduction-to-chromatic-solfege-00290-6-01-u.eps'...
Converting to `./an-introduction-to-chromatic-solfege-00290-6-01-u.pdf'...
Layout output to `an-introduction-to-chromatic-solfege-00290-6-01-u-1.eps'...
Converting to `./an-introduction-to-chromatic-solfege-00290-6-01-u-1.pdf'...
Writing an-introduction-to-chromatic-solfege-00290-6-01-u-systems.texi...
Writing an-introduction-to-chromatic-solfege-00290-6-01-u-systems.tex...
Writing an-introduction-to-chromatic-solfege-00290-6-01-u-systems.count...
Success: compilation successfully completed
