\version "2.18.2"
\include "aaron.ly"
\include "chromatic-template.ly"
\include "lilypond-book-preamble.ly"
\language "aaron"

	\makescore 
  \relative do' {
	dao me s rao fa s mao sol s fao le s sao te s lao do s tao re s dao me  \bar "|" \break  dao me s tao re s lao do s sao te s fao le s mao sol s rao fa s dao me
  }
  #'(( festival-tempo . 150 )( festival-voice . voice_us2_mbrola )( do-compile . #t )( do-play . #f ))

\paper  {
	#(set! paper-alist (cons '("a4insides" . (cons (* 8 in) (* 3 in))) paper-alist))
	#(set-paper-size "a4insides")
}

