GNU LilyPond 2.18.2
Changing working directory to: `TEMP-an-introduction-to-chromatic-solfege-00102-notename-accidentals'
Processing `an-introduction-to-chromatic-solfege-00102-notename-accidentals.ly'
Parsing...
Interpreting music...
Interpreting music...[8]
Preprocessing graphical objects...
MIDI output to `an-introduction-to-chromatic-solfege-00102-notename-accidentals.midi'...
Calculating line breaks... 
Drawing systems... 
Layout output to `an-introduction-to-chromatic-solfege-00102-notename-accidentals.eps'...
Converting to `./an-introduction-to-chromatic-solfege-00102-notename-accidentals.pdf'...
Layout output to `an-introduction-to-chromatic-solfege-00102-notename-accidentals-1.eps'...
Layout output to `an-introduction-to-chromatic-solfege-00102-notename-accidentals-2.eps'...
Layout output to `an-introduction-to-chromatic-solfege-00102-notename-accidentals-3.eps'...
Layout output to `an-introduction-to-chromatic-solfege-00102-notename-accidentals-4.eps'...
Layout output to `an-introduction-to-chromatic-solfege-00102-notename-accidentals-5.eps'...
Layout output to `an-introduction-to-chromatic-solfege-00102-notename-accidentals-6.eps'...
Layout output to `an-introduction-to-chromatic-solfege-00102-notename-accidentals-7.eps'...
Layout output to `an-introduction-to-chromatic-solfege-00102-notename-accidentals-8.eps'...
Converting to `./an-introduction-to-chromatic-solfege-00102-notename-accidentals-1.pdf'...
Converting to `./an-introduction-to-chromatic-solfege-00102-notename-accidentals-2.pdf'...
Converting to `./an-introduction-to-chromatic-solfege-00102-notename-accidentals-3.pdf'...
Converting to `./an-introduction-to-chromatic-solfege-00102-notename-accidentals-4.pdf'...
Converting to `./an-introduction-to-chromatic-solfege-00102-notename-accidentals-5.pdf'...
Converting to `./an-introduction-to-chromatic-solfege-00102-notename-accidentals-6.pdf'...
Converting to `./an-introduction-to-chromatic-solfege-00102-notename-accidentals-7.pdf'...
Converting to `./an-introduction-to-chromatic-solfege-00102-notename-accidentals-8.pdf'...
Writing an-introduction-to-chromatic-solfege-00102-notename-accidentals-systems.texi...
Writing an-introduction-to-chromatic-solfege-00102-notename-accidentals-systems.tex...
Writing an-introduction-to-chromatic-solfege-00102-notename-accidentals-systems.count...
Success: compilation successfully completed
