\version "2.18.2"
\include "aaron.ly"
\include "chromatic-template.ly"
\include "lilypond-book-preamble.ly"
\language "aaron"

	\makescore 
  \relative do' {
	di ra s ri me s mi fe s ma fa s fi se s si le s li te s ti de s ta do s di ra  \bar "|" \break  di ra s ta do s ti de s li te s si le s fi se s ma fa s mi fe s ri me s di ra
  }
  #'(( festival-tempo . 150 )( festival-voice . voice_us2_mbrola )( do-compile . #t )( do-play . #f ))

\paper  {
	#(set! paper-alist (cons '("a4insides" . (cons (* 8 in) (* 3 in))) paper-alist))
	#(set-paper-size "a4insides")
}

