GNU LilyPond 2.18.2
Changing working directory to: `TEMP-an-introduction-to-chromatic-solfege-01118-scale'
Processing `an-introduction-to-chromatic-solfege-01118-scale.ly'
Parsing...
Interpreting music...
Interpreting music...
Preprocessing graphical objects...
MIDI output to `an-introduction-to-chromatic-solfege-01118-scale.midi'...
Calculating line breaks... 
Drawing systems... 
Layout output to `an-introduction-to-chromatic-solfege-01118-scale.eps'...
Converting to `./an-introduction-to-chromatic-solfege-01118-scale.pdf'...
Layout output to `an-introduction-to-chromatic-solfege-01118-scale-1.eps'...
Converting to `./an-introduction-to-chromatic-solfege-01118-scale-1.pdf'...
Writing an-introduction-to-chromatic-solfege-01118-scale-systems.texi...
Writing an-introduction-to-chromatic-solfege-01118-scale-systems.tex...
Writing an-introduction-to-chromatic-solfege-01118-scale-systems.count...
Success: compilation successfully completed
