GNU LilyPond 2.18.2
Changing working directory to: `TEMP-an-introduction-to-chromatic-solfege-00155-mi'
Processing `an-introduction-to-chromatic-solfege-00155-mi.ly'
Parsing...
Interpreting music...
Interpreting music...
Preprocessing graphical objects...
MIDI output to `an-introduction-to-chromatic-solfege-00155-mi.midi'...
Calculating line breaks... 
Drawing systems... 
Layout output to `an-introduction-to-chromatic-solfege-00155-mi.eps'...
Converting to `./an-introduction-to-chromatic-solfege-00155-mi.pdf'...
Layout output to `an-introduction-to-chromatic-solfege-00155-mi-1.eps'...
Converting to `./an-introduction-to-chromatic-solfege-00155-mi-1.pdf'...
Writing an-introduction-to-chromatic-solfege-00155-mi-systems.texi...
Writing an-introduction-to-chromatic-solfege-00155-mi-systems.tex...
Writing an-introduction-to-chromatic-solfege-00155-mi-systems.count...
Success: compilation successfully completed
