\version "2.18.2"
\include "aaron.ly"
\include "chromatic-template.ly"
\include "lilypond-book-preamble.ly"
\language "aaron"

	\makescore 
  \relative do' {
	ra di s me ri s fe mi s fa ma s se fi s le si s te li s de ti s do ta s ra di  \bar "|" \break  ra di s do ta s de ti s te li s le si s se fi s fa ma s fe mi s me ri s ra di
  }
  #'(( festival-tempo . 150 )( festival-voice . voice_us2_mbrola )( do-compile . #t )( do-play . #f ))

\paper  {
	#(set! paper-alist (cons '("a4insides" . (cons (* 8 in) (* 3 in))) paper-alist))
	#(set-paper-size "a4insides")
}

