GNU LilyPond 2.18.2
Changing working directory to: `TEMP-an-introduction-to-chromatic-solfege-00221-fao'
Processing `an-introduction-to-chromatic-solfege-00221-fao.ly'
Parsing...
Interpreting music...
Interpreting music...
Preprocessing graphical objects...
MIDI output to `an-introduction-to-chromatic-solfege-00221-fao.midi'...
Calculating line breaks... 
Drawing systems... 
Layout output to `an-introduction-to-chromatic-solfege-00221-fao.eps'...
Converting to `./an-introduction-to-chromatic-solfege-00221-fao.pdf'...
Layout output to `an-introduction-to-chromatic-solfege-00221-fao-1.eps'...
Converting to `./an-introduction-to-chromatic-solfege-00221-fao-1.pdf'...
Writing an-introduction-to-chromatic-solfege-00221-fao-systems.texi...
Writing an-introduction-to-chromatic-solfege-00221-fao-systems.tex...
Writing an-introduction-to-chromatic-solfege-00221-fao-systems.count...
Success: compilation successfully completed
