GNU LilyPond 2.18.2
Changing working directory to: `TEMP-an-introduction-to-chromatic-solfege-00222-dao'
Processing `an-introduction-to-chromatic-solfege-00222-dao.ly'
Parsing...
Interpreting music...
Interpreting music...
Preprocessing graphical objects...
MIDI output to `an-introduction-to-chromatic-solfege-00222-dao.midi'...
Calculating line breaks... 
Drawing systems... 
Layout output to `an-introduction-to-chromatic-solfege-00222-dao.eps'...
Converting to `./an-introduction-to-chromatic-solfege-00222-dao.pdf'...
Layout output to `an-introduction-to-chromatic-solfege-00222-dao-1.eps'...
Converting to `./an-introduction-to-chromatic-solfege-00222-dao-1.pdf'...
Writing an-introduction-to-chromatic-solfege-00222-dao-systems.texi...
Writing an-introduction-to-chromatic-solfege-00222-dao-systems.tex...
Writing an-introduction-to-chromatic-solfege-00222-dao-systems.count...
Success: compilation successfully completed
