GNU LilyPond 2.18.2
Changing working directory to: `TEMP-an-introduction-to-chromatic-solfege-01032-harmonic-05'
Processing `an-introduction-to-chromatic-solfege-01032-harmonic-05.ly'
Parsing...
Interpreting music...
Interpreting music...
Preprocessing graphical objects...
MIDI output to `an-introduction-to-chromatic-solfege-01032-harmonic-05.midi'...
Calculating line breaks... 
Drawing systems... 
Layout output to `an-introduction-to-chromatic-solfege-01032-harmonic-05.eps'...
Converting to `./an-introduction-to-chromatic-solfege-01032-harmonic-05.pdf'...
Layout output to `an-introduction-to-chromatic-solfege-01032-harmonic-05-1.eps'...
Converting to `./an-introduction-to-chromatic-solfege-01032-harmonic-05-1.pdf'...
Writing an-introduction-to-chromatic-solfege-01032-harmonic-05-systems.texi...
Writing an-introduction-to-chromatic-solfege-01032-harmonic-05-systems.tex...
Writing an-introduction-to-chromatic-solfege-01032-harmonic-05-systems.count...
Success: compilation successfully completed
