\version "2.18.2"
\include "aaron.ly"
\include "chromatic-template.ly"
\include "lilypond-book-preamble.ly"
\language "aaron"

	\makescore 
  \relative do' {
	\absolute { do' mi' s di' ma' s re' fi' s ri' fai' s mi' si' s fa' la' s fi' li' s sol' ti' s si' ta' s la' di'' s li' dai'' s ti' ri'' s do'' }
  }
  #'(( festival-tempo . 170 )( festival-voice . voice_us2_mbrola )( do-compile . #t )( do-play . #f )( mark-irregular-accidentals . #t ))

\paper  {
	#(set! paper-alist (cons '("a4insides" . (cons (* 8 in) (* 3 in))) paper-alist))
	#(set-paper-size "a4insides")
}

