GNU LilyPond 2.18.2
Changing working directory to: `TEMP-an-introduction-to-chromatic-solfege-00052-example'
Processing `an-introduction-to-chromatic-solfege-00052-example.ly'
Parsing...
Interpreting music...
Interpreting music...
Preprocessing graphical objects...
MIDI output to `an-introduction-to-chromatic-solfege-00052-example.midi'...
Calculating line breaks... 
Drawing systems... 
Layout output to `an-introduction-to-chromatic-solfege-00052-example.eps'...
Converting to `./an-introduction-to-chromatic-solfege-00052-example.pdf'...
Layout output to `an-introduction-to-chromatic-solfege-00052-example-1.eps'...
Converting to `./an-introduction-to-chromatic-solfege-00052-example-1.pdf'...
Writing an-introduction-to-chromatic-solfege-00052-example-systems.texi...
Writing an-introduction-to-chromatic-solfege-00052-example-systems.tex...
Writing an-introduction-to-chromatic-solfege-00052-example-systems.count...
Success: compilation successfully completed
