GNU LilyPond 2.18.2
Changing working directory to: `TEMP-an-introduction-to-chromatic-solfege-00114-enharmonic-double-flat-fn'
Processing `an-introduction-to-chromatic-solfege-00114-enharmonic-double-flat-fn.ly'
Parsing...
Interpreting music...
Interpreting music...
Preprocessing graphical objects...
MIDI output to `an-introduction-to-chromatic-solfege-00114-enharmonic-double-flat-fn.midi'...
Calculating line breaks... 
Drawing systems... 
Layout output to `an-introduction-to-chromatic-solfege-00114-enharmonic-double-flat-fn.eps'...
Converting to `./an-introduction-to-chromatic-solfege-00114-enharmonic-double-flat-fn.pdf'...
Layout output to `an-introduction-to-chromatic-solfege-00114-enharmonic-double-flat-fn-1.eps'...
Layout output to `an-introduction-to-chromatic-solfege-00114-enharmonic-double-flat-fn-2.eps'...
Converting to `./an-introduction-to-chromatic-solfege-00114-enharmonic-double-flat-fn-1.pdf'...
Converting to `./an-introduction-to-chromatic-solfege-00114-enharmonic-double-flat-fn-2.pdf'...
Writing an-introduction-to-chromatic-solfege-00114-enharmonic-double-flat-fn-systems.texi...
Writing an-introduction-to-chromatic-solfege-00114-enharmonic-double-flat-fn-systems.tex...
Writing an-introduction-to-chromatic-solfege-00114-enharmonic-double-flat-fn-systems.count...
Success: compilation successfully completed
