GNU LilyPond 2.18.2
Changing working directory to: `TEMP-an-introduction-to-chromatic-solfege-00214-fai'
Processing `an-introduction-to-chromatic-solfege-00214-fai.ly'
Parsing...
Interpreting music...
Interpreting music...
Preprocessing graphical objects...
MIDI output to `an-introduction-to-chromatic-solfege-00214-fai.midi'...
Calculating line breaks... 
Drawing systems... 
Layout output to `an-introduction-to-chromatic-solfege-00214-fai.eps'...
Converting to `./an-introduction-to-chromatic-solfege-00214-fai.pdf'...
Layout output to `an-introduction-to-chromatic-solfege-00214-fai-1.eps'...
Converting to `./an-introduction-to-chromatic-solfege-00214-fai-1.pdf'...
Writing an-introduction-to-chromatic-solfege-00214-fai-systems.texi...
Writing an-introduction-to-chromatic-solfege-00214-fai-systems.tex...
Writing an-introduction-to-chromatic-solfege-00214-fai-systems.count...
Success: compilation successfully completed
